{
    "count":128,
    "next":"https://api.rawg.io/api/games?dates=2020-05-18%2C2021-05-18&key=6eaf82e6cd264cbd9ea5950dd863e5dc&ordering=-released&page=8&page_size=1&platforms=187",
    "previous":"https://api.rawg.io/api/games?dates=2020-05-18%2C2021-05-18&key=6eaf82e6cd264cbd9ea5950dd863e5dc&ordering=-released&page=6&page_size=1&platforms=187",
    "results":[
       {
          "slug":"getsufumaden-undying-moon",
          "name":"GetsuFumaDen: Undying Moon",
          "playtime":4,
          "platforms":[
             {
                "platform":{
                   "id":4,
                   "name":"PC",
                   "slug":"pc"
                }
             },
             {
                "platform":{
                   "id":187,
                   "name":"PlayStation 5",
                   "slug":"playstation5"
                }
             },
             {
                "platform":{
                   "id":18,
                   "name":"PlayStation 4",
                   "slug":"playstation4"
                }
             },
             {
                "platform":{
                   "id":7,
                   "name":"Nintendo Switch",
                   "slug":"nintendo-switch"
                }
             }
          ],
          "stores":[
             {
                "store":{
                   "id":1,
                   "name":"Steam",
                   "slug":"steam"
                }
             },
             {
                "store":{
                   "id":6,
                   "name":"Nintendo Store",
                   "slug":"nintendo"
                }
             }
          ],
          "released":"2021-05-13",
          "tba":false,
          "background_image":"https://media.rawg.io/media/screenshots/831/8315fd08b57b949c0f50a49cea8d46bb.jpg",
          "rating":0.0,
          "rating_top":0,
          "ratings":[
             {
                "id":5,
                "title":"exceptional",
                "count":1,
                "percent":50.0
             },
             {
                "id":3,
                "title":"meh",
                "count":1,
                "percent":50.0
             }
          ],
          "ratings_count":2,
          "reviews_text_count":0,
          "added":70,
          "added_by_status":{
             "yet":5,
             "owned":39,
             "toplay":24,
             "dropped":2
          },
          "metacritic":30,
          "suggestions_count":481,
          "updated":"2022-01-14T16:08:08",
          "id":586060,
          "tags":[
             {
                "id":31,
                "name":"Singleplayer",
                "slug":"singleplayer",
                "language":"eng",
                "games_count":166437,
                "image_background":"https://media.rawg.io/media/games/d58/d588947d4286e7b5e0e12e1bea7d9844.jpg"
             },
             {
                "id":42396,
                "name":"Для одного игрока",
                "slug":"dlia-odnogo-igroka",
                "language":"rus",
                "games_count":25113,
                "image_background":"https://media.rawg.io/media/games/c4b/c4b0cab189e73432de3a250d8cf1c84e.jpg"
             },
             {
                "id":42417,
                "name":"Экшен",
                "slug":"ekshen",
                "language":"rus",
                "games_count":27085,
                "image_background":"https://media.rawg.io/media/games/d58/d588947d4286e7b5e0e12e1bea7d9844.jpg"
             },
             {
                "id":40847,
                "name":"Steam Achievements",
                "slug":"steam-achievements",
                "language":"eng",
                "games_count":26040,
                "image_background":"https://media.rawg.io/media/games/da1/da1b267764d77221f07a4386b6548e5a.jpg"
             },
             {
                "id":42398,
                "name":"Инди",
                "slug":"indi-2",
                "language":"rus",
                "games_count":40434,
                "image_background":"https://media.rawg.io/media/games/1a1/1a17e9b6286edb7e1f1e510110ccb0c0.jpg"
             },
             {
                "id":40849,
                "name":"Steam Cloud",
                "slug":"steam-cloud",
                "language":"eng",
                "games_count":11856,
                "image_background":"https://media.rawg.io/media/games/4cf/4cfc6b7f1850590a4634b08bfab308ab.jpg"
             },
             {
                "id":40836,
                "name":"Full controller support",
                "slug":"full-controller-support",
                "language":"eng",
                "games_count":12094,
                "image_background":"https://media.rawg.io/media/games/736/73619bd336c894d6941d926bfd563946.jpg"
             },
             {
                "id":42401,
                "name":"Отличный саундтрек",
                "slug":"otlichnyi-saundtrek",
                "language":"rus",
                "games_count":4428,
                "image_background":"https://media.rawg.io/media/games/562/562553814dd54e001a541e4ee83a591c.jpg"
             },
             {
                "id":42,
                "name":"Great Soundtrack",
                "slug":"great-soundtrack",
                "language":"eng",
                "games_count":3204,
                "image_background":"https://media.rawg.io/media/games/bc0/bc06a29ceac58652b684deefe7d56099.jpg"
             },
             {
                "id":42402,
                "name":"Насилие",
                "slug":"nasilie",
                "language":"rus",
                "games_count":4257,
                "image_background":"https://media.rawg.io/media/games/7f6/7f6cd70ba2ad57053b4847c13569f2d8.jpg"
             },
             {
                "id":34,
                "name":"Violent",
                "slug":"violent",
                "language":"eng",
                "games_count":5266,
                "image_background":"https://media.rawg.io/media/games/1bd/1bd2657b81eb0c99338120ad444b24ff.jpg"
             },
             {
                "id":42416,
                "name":"Контроллер",
                "slug":"kontroller",
                "language":"rus",
                "games_count":2404,
                "image_background":"https://media.rawg.io/media/games/b6b/b6b20bfc4b34e312dbc8aac53c95a348.jpg"
             },
             {
                "id":115,
                "name":"Controller",
                "slug":"controller",
                "language":"eng",
                "games_count":7473,
                "image_background":"https://media.rawg.io/media/games/942/9424d6bb763dc38d9378b488603c87fa.jpg"
             },
             {
                "id":42411,
                "name":"Ранний доступ",
                "slug":"rannii-dostup",
                "language":"rus",
                "games_count":9601,
                "image_background":"https://media.rawg.io/media/games/1f4/1f47a270b8f241e4676b14d39ec620f7.jpg"
             },
             {
                "id":42487,
                "name":"Слэшер",
                "slug":"slesher",
                "language":"rus",
                "games_count":1415,
                "image_background":"https://media.rawg.io/media/games/9fb/9fbf956a16249def7625ab5dc3d09515.jpg"
             },
             {
                "id":14,
                "name":"Early Access",
                "slug":"early-access",
                "language":"eng",
                "games_count":10083,
                "image_background":"https://media.rawg.io/media/screenshots/2b9/2b9a49e89c1ba892a648620194dcf327.jpg"
             },
             {
                "id":68,
                "name":"Hack and Slash",
                "slug":"hack-and-slash",
                "language":"eng",
                "games_count":2669,
                "image_background":"https://media.rawg.io/media/games/4e0/4e0e7b6d6906a131307c94266e5c9a1c.jpg"
             },
             {
                "id":42506,
                "name":"Тёмное фэнтези",
                "slug":"tiomnoe-fentezi",
                "language":"rus",
                "games_count":1299,
                "image_background":"https://media.rawg.io/media/games/67f/67f62d1f062a6164f57575e0604ee9f6.jpg"
             },
             {
                "id":40,
                "name":"Dark Fantasy",
                "slug":"dark-fantasy",
                "language":"eng",
                "games_count":2466,
                "image_background":"https://media.rawg.io/media/games/8fc/8fc59e74133fd8a8a436b7e2d0fb36c2.jpg"
             },
             {
                "id":42690,
                "name":"Красивая",
                "slug":"krasivaia",
                "language":"rus",
                "games_count":522,
                "image_background":"https://media.rawg.io/media/games/8cd/8cd179c85bd3de8f79bef245b15075fb.jpg"
             },
             {
                "id":1465,
                "name":"combat",
                "slug":"combat",
                "language":"eng",
                "games_count":7044,
                "image_background":"https://media.rawg.io/media/games/73d/73db43df633477d4604c7248292f34b2.jpg"
             },
             {
                "id":42591,
                "name":"Упрощённый рогалик",
                "slug":"uproshchionnyi-rogalik",
                "language":"rus",
                "games_count":1516,
                "image_background":"https://media.rawg.io/media/games/f90/f90ee1a4239247a822771c40488e68c5.jpg"
             },
             {
                "id":640,
                "name":"Roguelite",
                "slug":"roguelite",
                "language":"eng",
                "games_count":3576,
                "image_background":"https://media.rawg.io/media/screenshots/bd6/bd68435d8cd3dd8d1bed8fc4021602f7.jpg"
             },
             {
                "id":42667,
                "name":"Псевдотрёхмерность",
                "slug":"psevdotriokhmernost",
                "language":"rus",
                "games_count":1002,
                "image_background":"https://media.rawg.io/media/games/26c/26cacc55399ed6b2c14e20d2eca0620a.jpg"
             },
             {
                "id":116,
                "name":"2.5D",
                "slug":"25d",
                "language":"eng",
                "games_count":927,
                "image_background":"https://media.rawg.io/media/screenshots/69b/69bb243ea9896ddfc2e051b58e81624d.jpg"
             },
             {
                "id":187,
                "name":"Demons",
                "slug":"demons",
                "language":"eng",
                "games_count":1488,
                "image_background":"https://media.rawg.io/media/screenshots/4ef/4efd33ac1ca2e3799cda7ff379f03708.jpg"
             },
             {
                "id":215,
                "name":"Dragons",
                "slug":"dragons",
                "language":"eng",
                "games_count":2150,
                "image_background":"https://media.rawg.io/media/games/639/639ce7d7fecbb9f0717e9fbc1180f8f8.jpg"
             },
             {
                "id":42545,
                "name":"Демоны",
                "slug":"demony",
                "language":"rus",
                "games_count":736,
                "image_background":"https://media.rawg.io/media/games/3b0/3b01313965c19adc6b6c37a3d9d33576.jpg"
             },
             {
                "id":42614,
                "name":"Драконы",
                "slug":"drakony",
                "language":"rus",
                "games_count":377,
                "image_background":"https://media.rawg.io/media/games/0d5/0d526ea44b82eadaff0e8727638acf99.jpg"
             },
             {
                "id":577,
                "name":"Beautiful",
                "slug":"beautiful",
                "language":"eng",
                "games_count":1755,
                "image_background":"https://media.rawg.io/media/games/07a/07a74470a2618fd71945db0619602baf.jpg"
             },
             {
                "id":42507,
                "name":"Сражения на мечах",
                "slug":"srazheniia-na-mechakh",
                "language":"rus",
                "games_count":381,
                "image_background":"https://media.rawg.io/media/screenshots/42e/42e99339ea2adc30900a64dfb8139e3b.jpg"
             },
             {
                "id":108,
                "name":"Mythology",
                "slug":"mythology",
                "language":"eng",
                "games_count":1337,
                "image_background":"https://media.rawg.io/media/games/4be/4be6a6ad0364751a96229c56bf69be59.jpg"
             },
             {
                "id":42610,
                "name":"Мифология",
                "slug":"mifologiia",
                "language":"rus",
                "games_count":451,
                "image_background":"https://media.rawg.io/media/games/326/326cbbdc3bc2da0b10cc3f7edd57161a.jpg"
             },
             {
                "id":185,
                "name":"Swordplay",
                "slug":"swordplay",
                "language":"eng",
                "games_count":354,
                "image_background":"https://media.rawg.io/media/games/27e/27e46821c94d9f3853bb30fb1157b0ab.jpg"
             },
             {
                "id":58127,
                "name":"Бой",
                "slug":"boi-2",
                "language":"rus",
                "games_count":2323,
                "image_background":"https://media.rawg.io/media/games/f7e/f7ed6cf588d66eab5bb3872dc1ddcd78.jpg"
             },
             {
                "id":49964,
                "name":"Action Roguelike",
                "slug":"action-roguelike-2",
                "language":"eng",
                "games_count":707,
                "image_background":"https://media.rawg.io/media/screenshots/108/108628a1f93b1bceeaf3a2cb0146f103.jpg"
             },
             {
                "id":49997,
                "name":"Экшен-рогалик",
                "slug":"ekshen-rogalik",
                "language":"rus",
                "games_count":699,
                "image_background":"https://media.rawg.io/media/games/8ab/8ab4066bdd1423944b159b2e4663039c.jpg"
             },
             {
                "id":282,
                "name":"Tutorial",
                "slug":"tutorial",
                "language":"eng",
                "games_count":1295,
                "image_background":"https://media.rawg.io/media/screenshots/f81/f81f213d5ce33c86c9ccc34ddc81a31f.jpg"
             },
             {
                "id":42583,
                "name":"Обучение",
                "slug":"obuchenie",
                "language":"rus",
                "games_count":618,
                "image_background":"https://media.rawg.io/media/games/377/3770f2c7020bcb6cc2072f073f27fb4c.jpg"
             },
             {
                "id":50000,
                "name":"Roguevania",
                "slug":"roguevania",
                "language":"eng",
                "games_count":56,
                "image_background":"https://media.rawg.io/media/screenshots/33c/33cc696153116ec5b21d3658825934d3.jpg"
             },
             {
                "id":59465,
                "name":"Рогалик-метроидвания",
                "slug":"rogalik-metroidvaniia",
                "language":"eng",
                "games_count":44,
                "image_background":"https://media.rawg.io/media/screenshots/746/746418a32afd9835fcdf1a7775547a64.jpg"
             }
          ],
          "esrb_rating":{
             "id":4,
             "name":"Mature",
             "slug":"mature",
             "name_en":"Mature",
             "name_ru":"С 17 лет"
          },
          "user_game":null,
          "reviews_count":2,
          "community_rating":0,
          "saturated_color":"0f0f0f",
          "dominant_color":"0f0f0f",
          "short_screenshots":[
             {
                "id":-1,
                "image":"https://media.rawg.io/media/screenshots/831/8315fd08b57b949c0f50a49cea8d46bb.jpg"
             },
             {
                "id":2795963,
                "image":"https://media.rawg.io/media/screenshots/1ae/1aefca8dc319f6bf7f86bdbfbae1b3b9.jpg"
             },
             {
                "id":2795964,
                "image":"https://media.rawg.io/media/screenshots/bec/beccc4152a20cc22aa9bd9e582111d86.jpg"
             },
             {
                "id":2795965,
                "image":"https://media.rawg.io/media/screenshots/dc9/dc938700665aa3bf9162cca94321ce29.jpg"
             },
             {
                "id":2795966,
                "image":"https://media.rawg.io/media/screenshots/ad9/ad9adc02bcced077321b1f65ae557a61.jpg"
             },
             {
                "id":2795967,
                "image":"https://media.rawg.io/media/screenshots/a1e/a1ea7ede4a565cfe331bc26e555c356d.jpg"
             },
             {
                "id":2795968,
                "image":"https://media.rawg.io/media/screenshots/073/0733918caba60328c17eb035748871b2.jpg"
             }
          ],
          "parent_platforms":[
             {
                "platform":{
                   "id":1,
                   "name":"PC",
                   "slug":"pc"
                }
             },
             {
                "platform":{
                   "id":2,
                   "name":"PlayStation",
                   "slug":"playstation"
                }
             },
             {
                "platform":{
                   "id":7,
                   "name":"Nintendo",
                   "slug":"nintendo"
                }
             }
          ],
          "genres":[
             {
                "id":83,
                "name":"Platformer",
                "slug":"platformer"
             },
             {
                "id":51,
                "name":"Indie",
                "slug":"indie"
             },
             {
                "id":4,
                "name":"Action",
                "slug":"action"
             }
          ]
       }
    ],
    "user_platforms":false
 }